{
    "data": [
        {
            "name":"Leontinus Alpha Edison",
            "picture":"https://ecs7.tokopedia.net/img/cache/300/career/team/2016/8/26/59_ea216e00-0ef2-11e2-89b2-da15e4b59b20.jpg"
        },
        {
            "name":"Steven Anthony Wijaya",
            "picture":"https://ecs7.tokopedia.net/img/cache/300/career/team/2017/11/6/1957/1957_329624a8-2a87-417f-974a-bcf707664611.jpg"
        },
        {
            "name":"Fitri Ilma Naviati",
            "picture":"https://ecs7.tokopedia.net/img/cache/300/career/team/2016/10/12/0/0_fe41fe7f-1746-4506-9e10-10f1d930cfd8.jpg"
        },
        {
            "name":"Khaidir Afif",
            "picture":"https://ecs7.tokopedia.net/img/cache/300/career/team/2016/11/14/0/0_c55f6475-9497-4ba9-877a-affc7828f53c.jpg"
        },
        {
            "name":"Dicki Dahrurozak",
            "picture":"https://ecs7.tokopedia.net/img/cache/300/career/team/2018/2/7/2090/2090_6a94806b-c9ba-4bab-95a4-0b63aa8f5252.jpg"
        },
        {
            "name":"Alviani Ardisa",
            "picture":"https://ecs7.tokopedia.net/img/cache/300/career/team/2017/11/6/1605/1605_90586759-3856-456d-afe4-c250059b698c.jpg"
        },
        {  
            "name":"Yusin",
            "picture":"https://ecs7.tokopedia.net/img/cache/300/career/team/2016/11/28/0/0_e0dad9d1-9a3b-4179-8c14-be75606aa5ea.jpg"
        },
        {  
            "name":"Karina  Susilo",
            "picture":"https://ecs7.tokopedia.net/img/cache/300/career/team/2016/10/13/0/0_26acb190-5f9a-489b-875b-466562af0658.jpg"
        }
    ]
}