<svg xmlns="http://www.w3.org/2000/svg" width="127" height="124" viewBox="0 0 127 124">
    <defs>
        <linearGradient id="a" x1="161.215%" x2="0%" y1="-28.077%" y2="79.162%">
            <stop offset="0%" stop-color="#FEFFFE"/>
            <stop offset="100%" stop-color="#9DF0A2"/>
        </linearGradient>
        <linearGradient id="b" x1="-28.941%" x2="91.259%" y1="7.855%" y2="50%">
            <stop offset="0%" stop-color="#A7F3AC"/>
            <stop offset="100%" stop-color="#29B932"/>
        </linearGradient>
        <linearGradient id="c" x1="0%" x2="157.163%" y1="0%" y2="0%">
            <stop offset="0%" stop-color="#FFD618"/>
            <stop offset="100%" stop-color="#FFAD0A"/>
        </linearGradient>
        <linearGradient id="d" x1="40.654%" x2="40.654%" y1="233.821%" y2="0%">
            <stop offset="0%" stop-color="#FFD618"/>
            <stop offset="100%" stop-color="#FFAD0A"/>
        </linearGradient>
        <linearGradient id="e" x1="50%" x2="50%" y1="0%" y2="100%">
            <stop offset="0%" stop-color="#29B932"/>
            <stop offset="100%" stop-color="#A7F3AC"/>
        </linearGradient>
        <linearGradient id="f" x1="50%" x2="50%" y1="0%" y2="100%">
            <stop offset="0%" stop-color="#FFC73D"/>
            <stop offset="100%" stop-color="#FFEE04"/>
        </linearGradient>
    </defs>
    <g fill="none" fill-rule="evenodd" transform="translate(2 2)">
        <path fill="url(#a)" d="M37.78 32.147c3.707 2.136 5.476 5.855 8.973 8.372 3.231 2.326 8.166 5.963 14.805 10.91-25.194 4.415-41.558 6.623-49.09 6.623C4.935 58.052.779 55.844 0 51.429c1.88-11.618 9.292-18.404 22.235-20.36-3.865-3.086-6.393-8.207-6.393-14.002C15.842 7.641 22.53 0 30.78 0c8.25 0 14.937 7.641 14.937 17.067 0 6.535-3.215 12.213-7.936 15.08z" transform="translate(0 44.416)"/>
        <path fill="url(#a)" d="M39.323 31.068c12.943 1.957 20.355 8.743 22.235 20.36.69 4.676-6.204 7.014-20.682 7.014-14.477 0-28.103-2.338-40.876-7.013 4.03-3.68 7.407-6.667 10.13-8.961 3.793-3.196 7.586-8.098 13.32-10.527-4.542-2.927-7.608-8.492-7.608-14.874C15.842 7.641 22.53 0 30.78 0c8.25 0 14.937 7.641 14.937 17.067 0 5.795-2.528 10.916-6.393 14.001z" transform="translate(61.558 44.416)"/>
        <g transform="translate(11.688 13.247)">
            <path fill="url(#b)" d="M65.27 57.662c18.597 3.706 29.308 14.355 32.133 31.948H0c2.825-17.593 13.536-28.242 32.132-31.948l16.57 25.012L65.27 57.662z"/>
            <ellipse cx="48.701" cy="26.883" fill="url(#b)" rx="23.766" ry="26.883"/>
            <g fill-rule="nonzero">
                <path fill="url(#c)" d="M4.36 3.367h8.178l4.34 25.587H.648z" transform="translate(39.74 60.78)"/>
                <path fill="url(#d)" d="M3.997 0h7.478l4.753 4.04H0z" transform="rotate(-180 27.984 32.41)"/>
            </g>
            <path fill="#FFF" fill-rule="nonzero" d="M48.652 44.416c-6.788 0-13.212-7.445-10.689-9.746 1.184-1.08 4.626 1.346 10.689 1.346 6.062 0 9.19-2.711 10.688-1.346 2.821 2.572-3.901 9.746-10.688 9.746z"/>
        </g>
        <path stroke="url(#e)" stroke-linecap="round" stroke-width="5.208" d="M121.941 11.254c0-5.187-4.2-9.391-9.381-9.391-5.182 0-9.382 4.204-9.382 9.39 0 5.187 4.2 9.392 9.382 9.392" transform="rotate(103 112.56 11.254)"/>
        <ellipse cx="7.363" cy="7.37" stroke="url(#f)" stroke-width="3.782" rx="7.363" ry="7.37"/>
        <ellipse cx="11.294" cy="115.714" stroke="url(#f)" stroke-width="3.782" rx="4.281" ry="4.286"/>
    </g>
</svg>
