<svg xmlns="http://www.w3.org/2000/svg" xmlns:xlink="http://www.w3.org/1999/xlink" width="159" height="154" viewBox="0 0 159 154">
    <defs>
        <linearGradient id="a" x1="50%" x2="50%" y1="0%" y2="100%">
            <stop offset="0%" stop-color="#29B932"/>
            <stop offset="100%" stop-color="#A7F3AC"/>
        </linearGradient>
        <linearGradient id="b" x1="50%" x2="50%" y1="0%" y2="100%">
            <stop offset="0%" stop-color="#FFC73D"/>
            <stop offset="100%" stop-color="#FFEE04"/>
        </linearGradient>
        <linearGradient id="d" x1="-28.941%" x2="91.259%" y1="7.855%" y2="50%">
            <stop offset="0%" stop-color="#A7F3AC"/>
            <stop offset="100%" stop-color="#29B932"/>
        </linearGradient>
        <rect id="c" width="66" height="127" rx="12"/>
        <linearGradient id="e" x1="122.039%" x2="5.207%" y1="50%" y2="50%">
            <stop offset="0%" stop-color="#FEFFFE"/>
            <stop offset="100%" stop-color="#9DF0A2"/>
        </linearGradient>
        <linearGradient id="g" x1="-89.262%" x2="91.259%" y1="50%" y2="50%">
            <stop offset="0%" stop-color="#A7F3AC"/>
            <stop offset="100%" stop-color="#29B932"/>
        </linearGradient>
        <linearGradient id="h" x1="33.054%" x2="73.564%" y1="131.295%" y2="0%">
            <stop offset="0%" stop-color="#A7F3AC"/>
            <stop offset="100%" stop-color="#29B932"/>
        </linearGradient>
        <linearGradient id="j" x1="50%" x2="50%" y1="-17.465%" y2="85.291%">
            <stop offset="0%" stop-color="#A7F3AC"/>
            <stop offset="100%" stop-color="#29B932"/>
        </linearGradient>
        <path id="i" d="M0 0h10.448v75.035H0z"/>
        <linearGradient id="m" x1="50%" x2="89.03%" y1="38.229%" y2="100%">
            <stop offset="0%" stop-color="#FFD618"/>
            <stop offset="100%" stop-color="#FFAD0A"/>
        </linearGradient>
        <path id="l" d="M0 .275h61v47.132L31.424 60H0z"/>
    </defs>
    <g fill="none" fill-rule="evenodd">
        <path stroke="url(#a)" stroke-linecap="round" stroke-width="6.683" d="M156.491 14.443c0-6.657-5.39-12.052-12.04-12.052-6.65 0-12.04 5.395-12.04 12.052 0 6.656 5.39 12.051 12.04 12.051" transform="rotate(103 144.451 14.443)"/>
        <ellipse cx="9.449" cy="9.459" stroke="url(#b)" stroke-width="4.854" rx="9.449" ry="9.459"/>
        <ellipse cx="14.495" cy="148.5" stroke="url(#b)" stroke-width="4.854" rx="5.495" ry="5.5"/>
        <g transform="translate(51 14)">
            <mask id="f" fill="#fff">
                <use xlink:href="#c"/>
            </mask>
            <use fill="url(#d)" xlink:href="#c"/>
            <rect width="66" height="117" y="5" fill="url(#e)" mask="url(#f)" rx="12"/>
            <g mask="url(#f)" opacity=".4">
                <g transform="translate(10 23)">
                    <rect width="46" height="5" y="37" fill="url(#g)" rx="2.5"/>
                    <rect width="32" height="29" x="7" fill="url(#d)" rx="14.5"/>
                    <rect width="46" height="5" y="50" fill="url(#g)" rx="2.5"/>
                    <rect width="27" height="5" y="63" fill="url(#g)" rx="2.5"/>
                </g>
            </g>
        </g>
        <path fill="url(#h)" d="M7.173 2.09l3.275 14.289H0L3.275 2.09a2 2 0 0 1 3.898 0z" transform="rotate(165 21.709 73.477)"/>
        <g transform="rotate(165 20.63 65.287)">
            <mask id="k" fill="#fff">
                <use xlink:href="#i"/>
            </mask>
            <use fill="url(#j)" xlink:href="#i"/>
            <path fill="url(#h)" d="M-5.699 0H4.749v75.035H-5.699z" mask="url(#k)"/>
        </g>
        <g>
            <g transform="translate(86 73)">
                <mask id="n" fill="#fff">
                    <use xlink:href="#l"/>
                </mask>
                <use fill="url(#m)" fill-rule="nonzero" xlink:href="#l"/>
                <path fill="url(#m)" fill-rule="nonzero" d="M31.576 60l17.712-21.687 12.43 8.675-12.43 12.392z" mask="url(#n)"/>
            </g>
            <g fill="#FFF" transform="translate(93.894 84.566)">
                <rect width="44.494" height="3.614" y="9.398" rx="1.807"/>
                <rect width="44.494" height="3.614" rx="1.807"/>
                <rect width="33.729" height="3.614" y="18.795" rx="1.807"/>
            </g>
        </g>
    </g>
</svg>
